Project 1: Exploratory Data Analysis
…
The two datasets that we are going to be exploring takes into account NFL Fandom. For one of the datasets, it takes into account the race and politcal views of fans of particular NFL teams. The other datasets contain variables that factor into how people choose on what their favorite NFL team will be. I thought that it would be interesting if there was correlation in political views of fans of particular teams to the reasons why they choose a team to be their favorite. The data sets were acquired from the “fivethirtyeight” package.

1. Tidying: Rearranging Wide/Long

data("nfl_fandom_surveymonkey")
data("nfl_fav_team")

nfl_fav_long <- pivot_longer(nfl_fav_team, c(big_market, uniform, 
    coaching, stadium_exp, small_market, afford, stlouis_prox, 
    nyc_prox, fan_relations, bang_buck, tradition, bandwagon, 
    future_wins, players, ownership, behavior), names_to = "Category", 
    values_to = "Weight")
nfl_fav_long

## # A tibble: 512 x 3
##    team              Category      Weight
##    <chr>             <chr>          <int>
##  1 Green Bay Packers big_market         0
##  2 Green Bay Packers uniform           94
##  3 Green Bay Packers coaching          81
##  4 Green Bay Packers stadium_exp      100
##  5 Green Bay Packers small_market     100
##  6 Green Bay Packers afford            94
##  7 Green Bay Packers stlouis_prox      84
##  8 Green Bay Packers nyc_prox          52
##  9 Green Bay Packers fan_relations    100
## 10 Green Bay Packers bang_buck         81
## # … with 502 more rows

nfl_politics_long <- pivot_longer(nfl_fandom_surveymonkey, c(total_respondents, 
    asian_dem, black_dem, hispanic_dem, other_dem, white_dem, 
    total_dem, asian_ind, black_ind, hispanic_ind, other_ind, 
    white_ind, total_ind, asian_gop, black_gop, hispanic_gop, 
    other_gop, white_gop, total_gop))
nfl_politics_long

## # A tibble: 627 x 8
##    team  gop_percent dem_percent ind_percent white_percent nonwhite_percent
##    <fct> <chr>       <chr>       <chr>       <chr>         <chr>           
##  1 Ariz… 26          26          48          68            32              
##  2 Ariz… 26          26          48          68            32              
##  3 Ariz… 26          26          48          68            32              
##  4 Ariz… 26          26          48          68            32              
##  5 Ariz… 26          26          48          68            32              
##  6 Ariz… 26          26          48          68            32              
##  7 Ariz… 26          26          48          68            32              
##  8 Ariz… 26          26          48          68            32              
##  9 Ariz… 26          26          48          68            32              
## 10 Ariz… 26          26          48          68            32              
## # … with 617 more rows, and 2 more variables: name <chr>, value <int>

2. Joining/Merging

nfl_merge <- nfl_fav_long %>% left_join(nfl_politics_long)
nfl_merge

## # A tibble: 9,440 x 10
##    team  Category Weight gop_percent dem_percent ind_percent white_percent
##    <chr> <chr>     <int> <chr>       <chr>       <chr>       <chr>        
##  1 Gree… big_mar…      0 24          33          44          78           
##  2 Gree… big_mar…      0 24          33          44          78           
##  3 Gree… big_mar…      0 24          33          44          78           
##  4 Gree… big_mar…      0 24          33          44          78           
##  5 Gree… big_mar…      0 24          33          44          78           
##  6 Gree… big_mar…      0 24          33          44          78           
##  7 Gree… big_mar…      0 24          33          44          78           
##  8 Gree… big_mar…      0 24          33          44          78           
##  9 Gree… big_mar…      0 24          33          44          78           
## 10 Gree… big_mar…      0 24          33          44          78           
## # … with 9,430 more rows, and 3 more variables: nonwhite_percent <chr>,
## #   name <chr>, value <int>
…
