Project 2
…
## # A tibble: 6 x 2
##   county            n
##   <chr>         <int>
## 1 Los Angeles      27
## 2 Orange           11
## 3 Sacramento        7
## 4 San Diego        21
## 5 Santa Barbara    11
## 6 Santa Clara      20

CASchools_County %>% select(read,math,income,computer)

## # A tibble: 97 x 4
##     read  math income computer
##    <dbl> <dbl>  <dbl>    <dbl>
##  1  612.  613.  11.6         0
##  2  619.  620.   7.02      960
##  3  620.  629.   6.61      569
##  4  621.  630.   8.13      721
##  5  625.  628.  11.3       177
##  6  630.  629.   7.33      175
##  7  630.  631.  12.6      1423
##  8  628.  633.  11.8      1306
##  9  628.  634.  14.1       786
## 10  630.  634.  12.3       896
## # … with 87 more rows
…
